[
    {
        "id": "215d29c74c2b8e94",
        "type": "tab",
        "label": "MQTT Hello Word",
        "disabled": false,
        "info": "",
        "env": []
    },
    {
        "id": "c1f3d9590e61c2d5",
        "type": "mqtt in",
        "z": "215d29c74c2b8e94",
        "name": "",
        "topic": "/hello",
        "qos": "0",
        "datatype": "auto",
        "broker": "d4561f595e491cdc",
        "nl": false,
        "rap": false,
        "inputs": 0,
        "x": 190,
        "y": 140,
        "wires": [
            [
                "6dcf17d86a2254e1",
                "6718350a04c434a9",
                "6eea58694b7609f1"
            ]
        ]
    },
    {
        "id": "1b96714823e7f032",
        "type": "inject",
        "z": "215d29c74c2b8e94",
        "name": "inject \"open\" command",
        "props": [
            {
                "p": "payload"
            },
            {
                "p": "topic",
                "vt": "str"
            }
        ],
        "repeat": "",
        "crontab": "",
        "once": false,
        "onceDelay": 0.1,
        "topic": "/hello",
        "payload": "open",
        "payloadType": "str",
        "x": 540,
        "y": 360,
        "wires": [
            [
                "442d05c5938f773d"
            ]
        ]
    },
    {
        "id": "442d05c5938f773d",
        "type": "mqtt out",
        "z": "215d29c74c2b8e94",
        "name": "",
        "topic": "",
        "qos": "",
        "retain": "",
        "respTopic": "",
        "contentType": "",
        "userProps": "",
        "correl": "",
        "expiry": "",
        "broker": "d4561f595e491cdc",
        "x": 770,
        "y": 380,
        "wires": []
    },
    {
        "id": "9f4f1c81ccd0044a",
        "type": "inject",
        "z": "215d29c74c2b8e94",
        "name": "inject \"close\" command",
        "props": [
            {
                "p": "payload"
            },
            {
                "p": "topic",
                "vt": "str"
            }
        ],
        "repeat": "",
        "crontab": "",
        "once": false,
        "onceDelay": 0.1,
        "topic": "/hello",
        "payload": "close",
        "payloadType": "str",
        "x": 540,
        "y": 420,
        "wires": [
            [
                "442d05c5938f773d"
            ]
        ]
    },
    {
        "id": "6dcf17d86a2254e1",
        "type": "ui_text",
        "z": "215d29c74c2b8e94",
        "group": "36d6d8249c495f7d",
        "order": 6,
        "width": "12",
        "height": "1",
        "name": "",
        "label": "Payload",
        "format": "{{msg.payload}}",
        "layout": "row-left",
        "className": "",
        "x": 360,
        "y": 80,
        "wires": []
    },
    {
        "id": "36929a24be908742",
        "type": "ui_button",
        "z": "215d29c74c2b8e94",
        "name": "",
        "group": "0206b3a8b0293400",
        "order": 1,
        "width": "3",
        "height": "1",
        "passthru": false,
        "label": "Open",
        "tooltip": "",
        "color": "",
        "bgcolor": "",
        "className": "",
        "icon": "",
        "payload": "open",
        "payloadType": "str",
        "topic": "/hello",
        "topicType": "str",
        "x": 590,
        "y": 320,
        "wires": [
            [
                "442d05c5938f773d"
            ]
        ]
    },
    {
        "id": "6dc342d7a74c29fe",
        "type": "ui_button",
        "z": "215d29c74c2b8e94",
        "name": "",
        "group": "0206b3a8b0293400",
        "order": 3,
        "width": "3",
        "height": "1",
        "passthru": false,
        "label": "Close",
        "tooltip": "",
        "color": "",
        "bgcolor": "",
        "className": "",
        "icon": "",
        "payload": "close",
        "payloadType": "str",
        "topic": "/hello",
        "topicType": "str",
        "x": 590,
        "y": 460,
        "wires": [
            [
                "442d05c5938f773d"
            ]
        ]
    },
    {
        "id": "6718350a04c434a9",
        "type": "ui_switch",
        "z": "215d29c74c2b8e94",
        "name": "Open/Close Switch",
        "label": "switch",
        "tooltip": "",
        "group": "0206b3a8b0293400",
        "order": 3,
        "width": "4",
        "height": "1",
        "passthru": true,
        "decouple": "false",
        "topic": "/hello",
        "topicType": "str",
        "style": "",
        "onvalue": "open",
        "onvalueType": "str",
        "onicon": "",
        "oncolor": "",
        "offvalue": "close",
        "offvalueType": "str",
        "officon": "",
        "offcolor": "",
        "animate": false,
        "className": "",
        "x": 390,
        "y": 200,
        "wires": [
            [
                "c5533916e07396fe"
            ]
        ]
    },
    {
        "id": "6eea58694b7609f1",
        "type": "debug",
        "z": "215d29c74c2b8e94",
        "name": "",
        "active": true,
        "tosidebar": true,
        "console": false,
        "tostatus": false,
        "complete": "true",
        "targetType": "full",
        "statusVal": "",
        "statusType": "auto",
        "x": 770,
        "y": 140,
        "wires": []
    },
    {
        "id": "c5533916e07396fe",
        "type": "function",
        "z": "215d29c74c2b8e94",
        "name": "Switch Touch Filter",
        "func": "\nif (msg.socketid !== undefined) {\n    // the switch has been touched\n    return msg\n}\n\n// else, the switch has been modified by MQTT broker",
        "outputs": 1,
        "noerr": 0,
        "initialize": "",
        "finalize": "",
        "libs": [],
        "x": 570,
        "y": 260,
        "wires": [
            [
                "6eea58694b7609f1",
                "442d05c5938f773d"
            ]
        ],
        "info": "Docs: [multiple inputs on a function node](http://noderedguide.com/node-red-lecture-6-example-6-7-multiple-inputs-on-a-function-node/)"
    },
    {
        "id": "7d18e63481aff4df",
        "type": "ui_spacer",
        "z": "215d29c74c2b8e94",
        "name": "spacer",
        "group": "0206b3a8b0293400",
        "order": 2,
        "width": "4",
        "height": "1"
    },
    {
        "id": "fb574607236c86ee",
        "type": "ui_spacer",
        "z": "215d29c74c2b8e94",
        "name": "spacer",
        "group": "e88e7a9c6644ffa3",
        "order": 3,
        "width": "2",
        "height": "1"
    },
    {
        "id": "d4561f595e491cdc",
        "type": "mqtt-broker",
        "z": "215d29c74c2b8e94",
        "name": "",
        "broker": "192.168.1.57",
        "port": "1883",
        "clientid": "",
        "autoConnect": true,
        "usetls": false,
        "protocolVersion": "4",
        "keepalive": "60",
        "cleansession": true,
        "birthTopic": "",
        "birthQos": "0",
        "birthPayload": "",
        "birthMsg": {},
        "closeTopic": "",
        "closeQos": "0",
        "closePayload": "",
        "closeMsg": {},
        "willTopic": "",
        "willQos": "0",
        "willPayload": "",
        "willMsg": {},
        "sessionExpiry": ""
    },
    {
        "id": "36d6d8249c495f7d",
        "type": "ui_group",
        "name": "Messages",
        "tab": "13277f9970bc470d",
        "order": 1,
        "disp": true,
        "width": "12",
        "collapse": false,
        "className": ""
    },
    {
        "id": "0206b3a8b0293400",
        "type": "ui_group",
        "name": "Open/Close",
        "tab": "13277f9970bc470d",
        "order": 3,
        "disp": true,
        "width": "12",
        "collapse": false,
        "className": ""
    },
    {
        "id": "13277f9970bc470d",
        "type": "ui_tab",
        "name": "MQTT Hello Word",
        "icon": "dashboard",
        "order": 1,
        "disabled": false,
        "hidden": false
    }
]